…
+   dplyr::filter(perf < ames_search %>% slice(1) %>% pull(perf)) %>% 
+   dplyr::select(-iter, -seeds, -change, -swaps, RMSE = perf) %>% 
+   distinct() %>% 
+   mutate(
+     var_1 = clean_value(var_1),
+     var_2 = clean_value(var_2)
+   ) %>% 
+   group_by(var_1, var_2) %>% 
+   summarize(
+     pval = pval[which.min(RMSE)],
+     RMSE = RMSE[which.min(RMSE)]
+   ) %>% 
+   ungroup() %>% 
+   arrange(RMSE)
# A tibble: 31 x 4
   var_1                var_2                                       pval   RMSE
   <chr>                <chr>                                      <dbl>  <dbl>
 1 Foundation: CBlock   Living Area                             0.00539  0.0513
 2 Foundation: PConc    Living Area                             0.00828  0.0515
 3 Building Type Duplex Living Area                             0.00178  0.0516
 4 Living Area          MS SubClass: Duplex All Styles and Ages 0.00102  0.0516
 5 Roof Style: Hip      Year Built                              0.0495   0.0518
 6 Roof Style: Gable    Year Built                              0.000320 0.0518
 7 Longitude (spline)   Neighborhood: Northridge Heights        0.00789  0.0518
 8 Living Area          Neighborhood: Northridge Heights        0.0964   0.0519
 9 Full Bath            Land Contour: HLS                       0.0767   0.0519
10 Foundation: CBlock   Lot Area                                0.0170   0.0519
# … with 21 more rows
…
