…
+   prep()
> 
> # Get raw rates and log-odds
> okc_props <- 
+   okc_train %>%
+   group_by(where_town) %>%
+   summarise(
+     rate = mean(Class == "stem"),
+     raw  = log(rate/(1-rate)),
+     n = length(Class)
+   ) %>%
+   mutate(where_town = as.character(where_town))
> 
> okc_props
# A tibble: 51 x 4
   where_town          rate   raw     n
   <chr>              <dbl> <dbl> <int>
 1 alameda           0.157  -1.68   616
 2 albany            0.192  -1.44   146
 3 belmont           0.234  -1.19   167
 4 belvedere_tiburon 0.0857 -2.37    35
 5 benicia           0.107  -2.13   122
 6 berkeley          0.163  -1.64  2676
 7 burlingame        0.181  -1.51   248
 8 castro_valley     0.124  -1.95   225
 9 corte_madera      0.111  -2.08    54
10 daly_city         0.134  -1.86   417
# … with 41 more rows
…
